<?xml version="1.0" encoding="utf-8"?>
<!-- Generator: Adobe Illustrator 16.0.0, SVG Export Plug-In . SVG Version: 6.00 Build 0)  -->
<!DOCTYPE svg PUBLIC "-//W3C//DTD SVG 1.1//EN" "http://www.w3.org/Graphics/SVG/1.1/DTD/svg11.dtd">
<svg version="1.1" xmlns="http://www.w3.org/2000/svg" xmlns:xlink="http://www.w3.org/1999/xlink" x="0px" y="0px" width="100%"
	 height="100%" viewBox="0 0 1824 96" enable-background="new 0 0 1824 96" xml:space="preserve">
<g id="black" display="none">
	<rect x="-160" y="-141" display="inline" fill="#1A1A1A" width="2070" height="800"/>
</g>

<g id="Calque_1">
	<path fill="none" class="_28 _43" stroke="#E1483C" stroke-miterlimit="10" d="M1320,0c0,139.333-576,49.333-576,96"/>

	<path fill="none" class="_46 _07" stroke="#D3FD7E" stroke-miterlimit="10" d="M310,2.667c0,90,1392-12,1392,93.333"/>

	<path fill="none" class="_45 _07" stroke="#D3FD7E" stroke-miterlimit="10" d="M310,2.667c0,90,1080,22.667,1080,91.333"/>

	<path fill="none" class="_41 _08" stroke="#D9E021" stroke-miterlimit="10" d="M358,2.667C358,137,142,27.333,142,96"/>

	<path fill="none" class="_42 _21" stroke="#FFD48C" stroke-miterlimit="10" d="M979.505,0c0,144-548.3,10-548.3,96"/>

	<path fill="none" class="_44 _03" stroke="#00A970" stroke-miterlimit="10" d="M120,0c0,69,954.395-45,954.395,96"/>
</g>
</svg>
